Copyright 1986-2018 Xilinx, Inc. All Rights Reserved.
-------------------------------------------------------------------------------------
| Tool Version : Vivado v.2018.2 (lin64) Build 2258646 Thu Jun 14 20:02:38 MDT 2018
| Date         : Tue Aug 28 15:12:47 2018
| Host         : thinkpadT470 running 64-bit Ubuntu 16.04.5 LTS
| Command      : report_control_sets -verbose -file SCA__top_control_sets_placed.rpt
| Design       : SCA__top
| Device       : xc7a200t
-------------------------------------------------------------------------------------

Control Set Information

Table of Contents
-----------------
1. Summary
2. Histogram
3. Flip-Flop Distribution
4. Detailed Control Set Information

1. Summary
----------

+----------------------------------------------------------+-------+
|                          Status                          | Count |
+----------------------------------------------------------+-------+
| Number of unique control sets                            |    57 |
| Unused register locations in slices containing registers |    26 |
+----------------------------------------------------------+-------+


2. Histogram
------------

+--------+--------------+
| Fanout | Control Sets |
+--------+--------------+
|      2 |            1 |
|      4 |            1 |
|      8 |            1 |
|     12 |            1 |
|    16+ |           53 |
+--------+--------------+


3. Flip-Flop Distribution
-------------------------

+--------------+-----------------------+------------------------+-----------------+--------------+
| Clock Enable | Synchronous Set/Reset | Asynchronous Set/Reset | Total Registers | Total Slices |
+--------------+-----------------------+------------------------+-----------------+--------------+
| No           | No                    | No                     |             188 |           35 |
| No           | No                    | Yes                    |              14 |            3 |
| No           | Yes                   | No                     |             280 |           75 |
| Yes          | No                    | No                     |             180 |           21 |
| Yes          | No                    | Yes                    |               0 |            0 |
| Yes          | Yes                   | No                     |            2240 |          283 |
+--------------+-----------------------+------------------------+-----------------+--------------+


4. Detailed Control Set Information
-----------------------------------

+---------------------------------+----------------------------------------+--------------------------------------+------------------+----------------+
|           Clock Signal          |              Enable Signal             |           Set/Reset Signal           | Slice Load Count | Bel Load Count |
+---------------------------------+----------------------------------------+--------------------------------------+------------------+----------------+
| ~spi_gclk                       |                                        | spi_cs0_IBUF                         |                1 |              2 |
|  clock_init_i/sca_gpio_clk_OBUF |                                        |                                      |                1 |              4 |
|  clock_init_i/clk160            |                                        |                                      |                3 |              8 |
|  spi_gclk                       |                                        | spi_cs0_IBUF                         |                2 |             12 |
|  spi_gclk                       | spiInterface_i/addr                    |                                      |                3 |             20 |
|  clock_init_i/clk80             |                                        | resetq                               |                7 |             24 |
|  spi_gclk                       |                                        |                                      |                4 |             26 |
|  clock_init_i/clk80             | peripheral_i/tx_packet3[3][15]_i_1_n_0 | resetq                               |                3 |             32 |
|  clock_init_i/clk80             | peripheral_i/tx_packet0[7][15]_i_1_n_0 | resetq                               |                4 |             32 |
|  clock_init_i/clk80             | peripheral_i/bits_packet0[15]_i_1_n_0  | resetq                               |                6 |             32 |
|  clock_init_i/clk80             | peripheral_i/bits_packet1[15]_i_1_n_0  | resetq                               |                5 |             32 |
|  clock_init_i/clk80             | peripheral_i/bits_packet3[15]_i_1_n_0  | resetq                               |                3 |             32 |
|  clock_init_i/clk80             | peripheral_i/tx_packet1[2][15]_i_1_n_0 | resetq                               |                5 |             32 |
|  clock_init_i/clk80             | peripheral_i/tx_packet1[4][15]_i_1_n_0 | resetq                               |                4 |             32 |
|  clock_init_i/clk80             | peripheral_i/tx_packet1[5][15]_i_1_n_0 | resetq                               |                4 |             32 |
|  clock_init_i/clk80             | peripheral_i/tx_packet1[6][15]_i_1_n_0 | resetq                               |                3 |             32 |
|  clock_init_i/clk80             | peripheral_i/tx_packet1[7][15]_i_1_n_0 | resetq                               |                5 |             32 |
|  clock_init_i/clk80             | peripheral_i/tx_packet2[0][15]_i_1_n_0 | resetq                               |                4 |             32 |
|  clock_init_i/clk80             | peripheral_i/tx_packet2[1][15]_i_1_n_0 | resetq                               |                3 |             32 |
|  clock_init_i/clk80             | peripheral_i/tx_packet2[2][15]_i_1_n_0 | resetq                               |                4 |             32 |
|  clock_init_i/clk80             | peripheral_i/tx_packet2[3][15]_i_1_n_0 | resetq                               |                3 |             32 |
|  clock_init_i/clk80             | peripheral_i/tx_packet2[4][15]_i_1_n_0 | resetq                               |                6 |             32 |
|  clock_init_i/clk80             | peripheral_i/tx_packet2[5][15]_i_1_n_0 | resetq                               |                4 |             32 |
|  clock_init_i/clk80             | peripheral_i/tx_packet2[6][15]_i_1_n_0 | resetq                               |                4 |             32 |
|  clock_init_i/clk80             | peripheral_i/tx_packet2[7][15]_i_1_n_0 | resetq                               |                6 |             32 |
|  clock_init_i/clk80             | peripheral_i/tx_packet3[7][15]_i_1_n_0 | resetq                               |                4 |             32 |
|  clock_init_i/clk80             | peripheral_i/tx_packet1[0][15]_i_1_n_0 | resetq                               |                6 |             32 |
|  clock_init_i/clk80             | peripheral_i/tx_packet3[1][15]_i_1_n_0 | resetq                               |                6 |             32 |
|  clock_init_i/clk80             | peripheral_i/tx_packet3[2][15]_i_1_n_0 | resetq                               |                3 |             32 |
|  clock_init_i/clk80             | peripheral_i/tx_packet3[4][15]_i_1_n_0 | resetq                               |                3 |             32 |
|  clock_init_i/clk80             | peripheral_i/tx_packet3[5][15]_i_1_n_0 | resetq                               |                3 |             32 |
|  clock_init_i/clk80             | peripheral_i/tx_packet3[6][15]_i_1_n_0 | resetq                               |                8 |             32 |
|  spi_gclk                       | spiInterface_i/tmp_miso12_in           |                                      |                2 |             32 |
| ~spi_gclk                       |                                        |                                      |                2 |             32 |
| ~spi_gclk                       | spiInterface_i/sro_latch[15]_i_1_n_0   |                                      |                6 |             32 |
| ~spi_gclk                       | spiInterface_i/controlReg00            |                                      |                4 |             32 |
| ~spi_gclk                       | spiInterface_i/controlReg10            |                                      |                4 |             32 |
|  spi_gclk                       | spiInterface_i/pi2peripheral0          |                                      |                2 |             32 |
|  clock_init_i/clk80             | peripheral_i/tx_packet1[3][15]_i_1_n_0 | resetq                               |                5 |             32 |
|  clock_init_i/clk80             | peripheral_i/tx_packet1[1][15]_i_1_n_0 | resetq                               |                6 |             32 |
|  clock_init_i/clk80             | peripheral_i/dummy_reg0[15]_i_1_n_0    | resetq                               |                7 |             32 |
|  clock_init_i/clk80             | peripheral_i/p_0_in                    | resetq                               |                5 |             32 |
|  clock_init_i/clk80             | peripheral_i/bits_packet2[15]_i_1_n_0  | resetq                               |                3 |             32 |
|  clock_init_i/clk80             | peripheral_i/tx_packet3[0][15]_i_1_n_0 | resetq                               |                5 |             32 |
|  clock_init_i/clk80             | peripheral_i/tx_packet0[1][15]_i_1_n_0 | resetq                               |                3 |             32 |
|  clock_init_i/clk80             | peripheral_i/tx_packet0[2][15]_i_1_n_0 | resetq                               |                5 |             32 |
|  clock_init_i/clk80             | peripheral_i/tx_packet0[3][15]_i_1_n_0 | resetq                               |                7 |             32 |
|  clock_init_i/clk80             | peripheral_i/tx_packet0[4][15]_i_1_n_0 | resetq                               |                3 |             32 |
|  clock_init_i/clk80             | peripheral_i/tx_packet0[5][15]_i_1_n_0 | resetq                               |                2 |             32 |
|  clock_init_i/clk80             | peripheral_i/tx_packet0[6][15]_i_1_n_0 | resetq                               |                3 |             32 |
|  clock_init_i/clk80             | peripheral_i/tx_packet0[0][15]_i_1_n_0 | resetq                               |                4 |             32 |
|  clock_init_i/clk80             |                                        |                                      |               25 |            118 |
|  clock_init_i/clk80             | peripheral_i/enable_miso3              | resetq                               |               30 |            256 |
|  clock_init_i/clk80             | peripheral_i/enable_miso2              | resetq                               |               25 |            256 |
|  clock_init_i/clk80             | peripheral_i/enable_miso1              | resetq                               |               32 |            256 |
|  clock_init_i/clk80             | peripheral_i/enable_miso0_reg_n_0      | resetq                               |               29 |            256 |
|  clock_init_i/clk80             |                                        | peripheral_i/shift_mosi[127]_i_1_n_0 |               68 |            256 |
+---------------------------------+----------------------------------------+--------------------------------------+------------------+----------------+


